1543645862286	mozrunner::runner	INFO	Running command: "/usr/bin/firefox" "-marionette" "-headless" "-foreground" "-no-remote" "-profile" "/tmp/rust_mozprofile.WJfxxV8o2djx"
*** You are running in headless mode.
1543645878160	Marionette	INFO	Listening on port 41379
1543645878248	Marionette	WARN	TLS certificate errors will be ignored for this session
console.error: BroadcastService: 
  receivedBroadcastMessage: handler for
  remote-settings/monitor_changes
  threw error:
  Message: Error: Polling for changes failed: NetworkError when attempting to fetch resource..
  Stack:
    remoteSettingsFunction/remoteSettings.pollChanges@resource://services-settings/remote-settings.js:721:13

JavaScript warning: https://cdn.freshmarketer.com/179700/477681.js, line 3: unreachable code after return statement
JavaScript warning: https://cdn.tokopedia.net/built/assets-201811-8c8baccfa9be77773ebd7408c3753ffa.js, line 888: Error: WebGL warning: <SetDimensions>: Can't use WebGL in headless mode (https://bugzil.la/1375585).
JavaScript warning: https://cdn.tokopedia.net/built/assets-201811-8c8baccfa9be77773ebd7408c3753ffa.js, line 888: Error: WebGL warning: <SetDimensions>: Failed to create WebGL context: WebGL creation failed: 
* Can't use WebGL in headless mode (https://bugzil.la/1375585).
JavaScript warning: https://cdn.tokopedia.net/built/assets-201811-8c8baccfa9be77773ebd7408c3753ffa.js, line 888: Error: WebGL warning: <SetDimensions>: Can't use WebGL in headless mode (https://bugzil.la/1375585).
JavaScript warning: https://cdn.tokopedia.net/built/assets-201811-8c8baccfa9be77773ebd7408c3753ffa.js, line 888: Error: WebGL warning: <SetDimensions>: Failed to create WebGL context: WebGL creation failed: 
* Can't use WebGL in headless mode (https://bugzil.la/1375585).
1543646000305	mozrunner::runner	INFO	Running command: "/usr/bin/firefox" "-marionette" "-headless" "-foreground" "-no-remote" "-profile" "/tmp/rust_mozprofile.FziQUxJJGjai"
*** You are running in headless mode.
1543646003408	Marionette	INFO	Listening on port 40419
1543646003418	Marionette	WARN	TLS certificate errors will be ignored for this session
JavaScript error: https://cdn.tokopedia.net/built/a158c4e4f2e995c525df09f7f5fd2f07.js, line 642: ReferenceError: goldLoc is not defined
1543646335857	mozrunner::runner	INFO	Running command: "/usr/bin/firefox" "-marionette" "-headless" "-foreground" "-no-remote" "-profile" "/tmp/rust_mozprofile.y1qsQewv07Mp"
*** You are running in headless mode.
1543646339108	Marionette	INFO	Listening on port 45777
1543646339176	Marionette	WARN	TLS certificate errors will be ignored for this session
JavaScript warning: https://cdn.freshmarketer.com/179700/477681.js, line 3: unreachable code after return statement
JavaScript warning: https://cdn.tokopedia.net/built/5491c7b07e8e26e789c3566ee4a966dc.js, line 59: Error: WebGL warning: <SetDimensions>: Can't use WebGL in headless mode (https://bugzil.la/1375585).
JavaScript warning: https://cdn.tokopedia.net/built/5491c7b07e8e26e789c3566ee4a966dc.js, line 59: Error: WebGL warning: <SetDimensions>: Failed to create WebGL context: WebGL creation failed: 
* Can't use WebGL in headless mode (https://bugzil.la/1375585).
JavaScript warning: https://cdn.tokopedia.net/built/5491c7b07e8e26e789c3566ee4a966dc.js, line 59: Error: WebGL warning: <SetDimensions>: Can't use WebGL in headless mode (https://bugzil.la/1375585).
JavaScript warning: https://cdn.tokopedia.net/built/5491c7b07e8e26e789c3566ee4a966dc.js, line 59: Error: WebGL warning: <SetDimensions>: Failed to create WebGL context: WebGL creation failed: 
* Can't use WebGL in headless mode (https://bugzil.la/1375585).
JavaScript warning: https://cdn.tokopedia.net/built/assets-201811-8c8baccfa9be77773ebd7408c3753ffa.js, line 888: Error: WebGL warning: <SetDimensions>: Can't use WebGL in headless mode (https://bugzil.la/1375585).
JavaScript warning: https://cdn.tokopedia.net/built/assets-201811-8c8baccfa9be77773ebd7408c3753ffa.js, line 888: Error: WebGL warning: <SetDimensions>: Failed to create WebGL context: WebGL creation failed: 
* Can't use WebGL in headless mode (https://bugzil.la/1375585).
JavaScript warning: https://cdn.tokopedia.net/built/assets-201811-8c8baccfa9be77773ebd7408c3753ffa.js, line 888: Error: WebGL warning: <SetDimensions>: Can't use WebGL in headless mode (https://bugzil.la/1375585).
JavaScript warning: https://cdn.tokopedia.net/built/assets-201811-8c8baccfa9be77773ebd7408c3753ffa.js, line 888: Error: WebGL warning: <SetDimensions>: Failed to create WebGL context: WebGL creation failed: 
* Can't use WebGL in headless mode (https://bugzil.la/1375585).
JavaScript warning: https://ecs7.tokopedia.net/scripts/global.fingerprintjs2.1.4.2.min.js, line 1: Error: WebGL warning: <SetDimensions>: Can't use WebGL in headless mode (https://bugzil.la/1375585).
JavaScript warning: https://ecs7.tokopedia.net/scripts/global.fingerprintjs2.1.4.2.min.js, line 1: Error: WebGL warning: <SetDimensions>: Failed to create WebGL context: WebGL creation failed: 
* Can't use WebGL in headless mode (https://bugzil.la/1375585).
JavaScript warning: https://ecs7.tokopedia.net/scripts/global.fingerprintjs2.1.4.2.min.js, line 1: Error: WebGL warning: <SetDimensions>: Can't use WebGL in headless mode (https://bugzil.la/1375585).
JavaScript warning: https://ecs7.tokopedia.net/scripts/global.fingerprintjs2.1.4.2.min.js, line 1: Error: WebGL warning: <SetDimensions>: Failed to create WebGL context: WebGL creation failed: 
* Can't use WebGL in headless mode (https://bugzil.la/1375585).
JavaScript warning: https://ecs7.tokopedia.net/scripts/global.fingerprintjs2.1.4.2.min.js, line 1: Error: WebGL warning: <SetDimensions>: Can't use WebGL in headless mode (https://bugzil.la/1375585).
JavaScript warning: https://ecs7.tokopedia.net/scripts/global.fingerprintjs2.1.4.2.min.js, line 1: Error: WebGL warning: <SetDimensions>: Failed to create WebGL context: WebGL creation failed: 
* Can't use WebGL in headless mode (https://bugzil.la/1375585).
JavaScript warning: https://ecs7.tokopedia.net/scripts/global.fingerprintjs2.1.4.2.min.js, line 1: Error: WebGL warning: <SetDimensions>: Can't use WebGL in headless mode (https://bugzil.la/1375585).
JavaScript warning: https://ecs7.tokopedia.net/scripts/global.fingerprintjs2.1.4.2.min.js, line 1: Error: WebGL warning: <SetDimensions>: Failed to create WebGL context: WebGL creation failed: 
* Can't use WebGL in headless mode (https://bugzil.la/1375585).
JavaScript error: https://cdn.tokopedia.net/built/assets-201811-8c8baccfa9be77773ebd7408c3753ffa.js, line 888: SyntaxError: JSON.parse: unexpected character at line 1 column 2 of the JSON data
1543651116673	mozrunner::runner	INFO	Running command: "/usr/bin/firefox" "-marionette" "-headless" "-foreground" "-no-remote" "-profile" "/tmp/rust_mozprofile.dMlQGcZ2ceOE"
*** You are running in headless mode.
1543651121433	Marionette	INFO	Listening on port 36529
1543651121502	Marionette	WARN	TLS certificate errors will be ignored for this session
console.error: BroadcastService: 
  receivedBroadcastMessage: handler for
  remote-settings/monitor_changes
  threw error:
  Message: Error: Polling for changes failed: NetworkError when attempting to fetch resource..
  Stack:
    remoteSettingsFunction/remoteSettings.pollChanges@resource://services-settings/remote-settings.js:721:13

JavaScript warning: https://cdn.freshmarketer.com/179700/477681.js, line 3: unreachable code after return statement
JavaScript warning: https://cdn.tokopedia.net/built/5491c7b07e8e26e789c3566ee4a966dc.js, line 59: Error: WebGL warning: <SetDimensions>: Can't use WebGL in headless mode (https://bugzil.la/1375585).
JavaScript warning: https://cdn.tokopedia.net/built/5491c7b07e8e26e789c3566ee4a966dc.js, line 59: Error: WebGL warning: <SetDimensions>: Failed to create WebGL context: WebGL creation failed: 
* Can't use WebGL in headless mode (https://bugzil.la/1375585).
JavaScript warning: https://cdn.tokopedia.net/built/5491c7b07e8e26e789c3566ee4a966dc.js, line 59: Error: WebGL warning: <SetDimensions>: Can't use WebGL in headless mode (https://bugzil.la/1375585).
JavaScript warning: https://cdn.tokopedia.net/built/5491c7b07e8e26e789c3566ee4a966dc.js, line 59: Error: WebGL warning: <SetDimensions>: Failed to create WebGL context: WebGL creation failed: 
* Can't use WebGL in headless mode (https://bugzil.la/1375585).
JavaScript warning: https://cdn.tokopedia.net/built/assets-201811-8c8baccfa9be77773ebd7408c3753ffa.js, line 888: Error: WebGL warning: <SetDimensions>: Can't use WebGL in headless mode (https://bugzil.la/1375585).
JavaScript warning: https://cdn.tokopedia.net/built/assets-201811-8c8baccfa9be77773ebd7408c3753ffa.js, line 888: Error: WebGL warning: <SetDimensions>: Failed to create WebGL context: WebGL creation failed: 
* Can't use WebGL in headless mode (https://bugzil.la/1375585).
JavaScript warning: https://cdn.tokopedia.net/built/assets-201811-8c8baccfa9be77773ebd7408c3753ffa.js, line 888: Error: WebGL warning: <SetDimensions>: Can't use WebGL in headless mode (https://bugzil.la/1375585).
JavaScript warning: https://cdn.tokopedia.net/built/assets-201811-8c8baccfa9be77773ebd7408c3753ffa.js, line 888: Error: WebGL warning: <SetDimensions>: Failed to create WebGL context: WebGL creation failed: 
* Can't use WebGL in headless mode (https://bugzil.la/1375585).
1543651883969	mozrunner::runner	INFO	Running command: "/usr/bin/firefox" "-marionette" "-headless" "-foreground" "-no-remote" "-profile" "/tmp/rust_mozprofile.0On18jVHgDw3"
*** You are running in headless mode.
1543651888068	Marionette	INFO	Listening on port 42643
1543651888116	Marionette	WARN	TLS certificate errors will be ignored for this session
JavaScript warning: https://cdn.tokopedia.net/built/assets-201811-6896bde9bcde84344b7d7eaa0246ea20.js, line 2210: unreachable code after return statement
JavaScript warning: https://cdn.tokopedia.net/built/5491c7b07e8e26e789c3566ee4a966dc.js, line 59: Error: WebGL warning: <SetDimensions>: Can't use WebGL in headless mode (https://bugzil.la/1375585).
JavaScript warning: https://cdn.tokopedia.net/built/5491c7b07e8e26e789c3566ee4a966dc.js, line 59: Error: WebGL warning: <SetDimensions>: Failed to create WebGL context: WebGL creation failed: 
* Can't use WebGL in headless mode (https://bugzil.la/1375585).
JavaScript warning: https://cdn.tokopedia.net/built/5491c7b07e8e26e789c3566ee4a966dc.js, line 59: Error: WebGL warning: <SetDimensions>: Can't use WebGL in headless mode (https://bugzil.la/1375585).
JavaScript warning: https://cdn.tokopedia.net/built/5491c7b07e8e26e789c3566ee4a966dc.js, line 59: Error: WebGL warning: <SetDimensions>: Failed to create WebGL context: WebGL creation failed: 
* Can't use WebGL in headless mode (https://bugzil.la/1375585).
JavaScript warning: https://ecs7.tokopedia.net/scripts/global.fingerprintjs2.1.4.2.min.js, line 1: Error: WebGL warning: <SetDimensions>: Can't use WebGL in headless mode (https://bugzil.la/1375585).
JavaScript warning: https://ecs7.tokopedia.net/scripts/global.fingerprintjs2.1.4.2.min.js, line 1: Error: WebGL warning: <SetDimensions>: Failed to create WebGL context: WebGL creation failed: 
* Can't use WebGL in headless mode (https://bugzil.la/1375585).
JavaScript warning: https://ecs7.tokopedia.net/scripts/global.fingerprintjs2.1.4.2.min.js, line 1: Error: WebGL warning: <SetDimensions>: Can't use WebGL in headless mode (https://bugzil.la/1375585).
JavaScript warning: https://ecs7.tokopedia.net/scripts/global.fingerprintjs2.1.4.2.min.js, line 1: Error: WebGL warning: <SetDimensions>: Failed to create WebGL context: WebGL creation failed: 
* Can't use WebGL in headless mode (https://bugzil.la/1375585).
JavaScript warning: https://ecs7.tokopedia.net/scripts/global.fingerprintjs2.1.4.2.min.js, line 1: Error: WebGL warning: <SetDimensions>: Can't use WebGL in headless mode (https://bugzil.la/1375585).
JavaScript warning: https://ecs7.tokopedia.net/scripts/global.fingerprintjs2.1.4.2.min.js, line 1: Error: WebGL warning: <SetDimensions>: Failed to create WebGL context: WebGL creation failed: 
* Can't use WebGL in headless mode (https://bugzil.la/1375585).
JavaScript warning: https://ecs7.tokopedia.net/scripts/global.fingerprintjs2.1.4.2.min.js, line 1: Error: WebGL warning: <SetDimensions>: Can't use WebGL in headless mode (https://bugzil.la/1375585).
JavaScript warning: https://ecs7.tokopedia.net/scripts/global.fingerprintjs2.1.4.2.min.js, line 1: Error: WebGL warning: <SetDimensions>: Failed to create WebGL context: WebGL creation failed: 
* Can't use WebGL in headless mode (https://bugzil.la/1375585).
JavaScript warning: https://ecs7.tokopedia.net/scripts/global.fingerprintjs2.1.4.2.min.js, line 1: Error: WebGL warning: <SetDimensions>: Can't use WebGL in headless mode (https://bugzil.la/1375585).
JavaScript warning: https://ecs7.tokopedia.net/scripts/global.fingerprintjs2.1.4.2.min.js, line 1: Error: WebGL warning: <SetDimensions>: Failed to create WebGL context: WebGL creation failed: 
* Can't use WebGL in headless mode (https://bugzil.la/1375585).
JavaScript warning: https://ecs7.tokopedia.net/scripts/global.fingerprintjs2.1.4.2.min.js, line 1: Error: WebGL warning: <SetDimensions>: Can't use WebGL in headless mode (https://bugzil.la/1375585).
JavaScript warning: https://ecs7.tokopedia.net/scripts/global.fingerprintjs2.1.4.2.min.js, line 1: Error: WebGL warning: <SetDimensions>: Failed to create WebGL context: WebGL creation failed: 
* Can't use WebGL in headless mode (https://bugzil.la/1375585).
1543656173785	mozrunner::runner	INFO	Running command: "/usr/bin/firefox" "-marionette" "-headless" "-foreground" "-no-remote" "-profile" "/tmp/rust_mozprofile.wN62cQKLt7mO"
*** You are running in headless mode.
1543656196056	Marionette	INFO	Listening on port 35507
1543656196070	Marionette	WARN	TLS certificate errors will be ignored for this session
JavaScript warning: https://cdn.freshmarketer.com/179700/477681.js, line 3: unreachable code after return statement
JavaScript warning: https://cdn.tokopedia.net/built/assets-201811-8c8baccfa9be77773ebd7408c3753ffa.js, line 888: Error: WebGL warning: <SetDimensions>: Can't use WebGL in headless mode (https://bugzil.la/1375585).
JavaScript warning: https://cdn.tokopedia.net/built/assets-201811-8c8baccfa9be77773ebd7408c3753ffa.js, line 888: Error: WebGL warning: <SetDimensions>: Failed to create WebGL context: WebGL creation failed: 
* Can't use WebGL in headless mode (https://bugzil.la/1375585).
JavaScript warning: https://cdn.tokopedia.net/built/assets-201811-8c8baccfa9be77773ebd7408c3753ffa.js, line 888: Error: WebGL warning: <SetDimensions>: Can't use WebGL in headless mode (https://bugzil.la/1375585).
JavaScript warning: https://cdn.tokopedia.net/built/assets-201811-8c8baccfa9be77773ebd7408c3753ffa.js, line 888: Error: WebGL warning: <SetDimensions>: Failed to create WebGL context: WebGL creation failed: 
* Can't use WebGL in headless mode (https://bugzil.la/1375585).
1543678120364	mozrunner::runner	INFO	Running command: "/usr/bin/firefox" "-marionette" "-headless" "-foreground" "-no-remote" "-profile" "/tmp/rust_mozprofile.Jx1lVaM7JU7T"
*** You are running in headless mode.
[Child 21540, Chrome_ChildThread] WARNING: pipe error: Broken pipe: file /build/firefox-JcIUVH/firefox-63.0.3+build1/ipc/chromium/src/chrome/common/ipc_channel_posix.cc, line 729
[Child 21540, Chrome_ChildThread] WARNING: pipe error: Broken pipe: file /build/firefox-JcIUVH/firefox-63.0.3+build1/ipc/chromium/src/chrome/common/ipc_channel_posix.cc, line 729
[Child 21540, Chrome_ChildThread] WARNING: pipe error: Broken pipe: file /build/firefox-JcIUVH/firefox-63.0.3+build1/ipc/chromium/src/chrome/common/ipc_channel_posix.cc, line 729
[Child 21540, Chrome_ChildThread] WARNING: pipe error: Broken pipe: file /build/firefox-JcIUVH/firefox-63.0.3+build1/ipc/chromium/src/chrome/common/ipc_channel_posix.cc, line 729
[Child 21540, Chrome_ChildThread] WARNING: pipe error: Broken pipe: file /build/firefox-JcIUVH/firefox-63.0.3+build1/ipc/chromium/src/chrome/common/ipc_channel_posix.cc, line 729
[Child 21540, Chrome_ChildThread] WARNING: FileDescriptorSet destroyed with unconsumed descriptors: file /build/firefox-JcIUVH/firefox-63.0.3+build1/ipc/chromium/src/chrome/common/file_descriptor_set_posix.cc, line 22
1543678475964	mozrunner::runner	INFO	Running command: "/usr/bin/firefox" "-marionette" "-headless" "-foreground" "-no-remote" "-profile" "/tmp/rust_mozprofile.bFzyqxS1euGa"
*** You are running in headless mode.
1543678994344	mozrunner::runner	INFO	Running command: "/usr/bin/firefox" "-marionette" "-headless" "-foreground" "-no-remote" "-profile" "/tmp/rust_mozprofile.vuyC4klaVBHl"
*** You are running in headless mode.
1543679061790	mozrunner::runner	INFO	Running command: "/usr/bin/firefox" "-marionette" "-headless" "-foreground" "-no-remote" "-profile" "/tmp/rust_mozprofile.gtByd6zOAJV8"
*** You are running in headless mode.
1543679163051	mozrunner::runner	INFO	Running command: "/usr/bin/firefox" "-marionette" "-headless" "-foreground" "-no-remote" "-profile" "/tmp/rust_mozprofile.3fF2GgXHSfbt"
[Child 22327, Chrome_ChildThread] WARNING: pipe error: Broken pipe: file /build/firefox-JcIUVH/firefox-63.0.3+build1/ipc/chromium/src/chrome/common/ipc_channel_posix.cc, line 729
[Child 22327, Chrome_ChildThread] WARNING: pipe error: Broken pipe: file /build/firefox-JcIUVH/firefox-63.0.3+build1/ipc/chromium/src/chrome/common/ipc_channel_posix.cc, line 729
[Child 22327, Chrome_ChildThread] WARNING: pipe error: Broken pipe: file /build/firefox-JcIUVH/firefox-63.0.3+build1/ipc/chromium/src/chrome/common/ipc_channel_posix.cc, line 729
[Child 22327, Chrome_ChildThread] WARNING: pipe error: Broken pipe: file /build/firefox-JcIUVH/firefox-63.0.3+build1/ipc/chromium/src/chrome/common/ipc_channel_posix.cc, line 729
[Child 22327, Chrome_ChildThread] WARNING: pipe error: Broken pipe: file /build/firefox-JcIUVH/firefox-63.0.3+build1/ipc/chromium/src/chrome/common/ipc_channel_posix.cc, line 729
[Child 22327, Chrome_ChildThread] WARNING: FileDescriptorSet destroyed with unconsumed descriptors: file /build/firefox-JcIUVH/firefox-63.0.3+build1/ipc/chromium/src/chrome/common/file_descriptor_set_posix.cc, line 22
1543681448434	mozrunner::runner	INFO	Running command: "/usr/bin/firefox" "-marionette" "-headless" "-foreground" "-no-remote" "-profile" "/tmp/rust_mozprofile.tVfLwvdfNG8B"
*** You are running in headless mode.
1543681733126	mozrunner::runner	INFO	Running command: "/usr/bin/firefox" "-marionette" "-headless" "-foreground" "-no-remote" "-profile" "/tmp/rust_mozprofile.84hunNzAu3kh"
*** You are running in headless mode.
1543681752870	Marionette	INFO	Listening on port 40233
1543681753520	Marionette	WARN	TLS certificate errors will be ignored for this session
1543681764983	mozrunner::runner	INFO	Running command: "/usr/bin/firefox" "-marionette" "-headless" "-foreground" "-no-remote" "-profile" "/tmp/rust_mozprofile.tboudu9xfLyk"
*** You are running in headless mode.
console.error: BroadcastService: 
  receivedBroadcastMessage: handler for
  remote-settings/monitor_changes
  threw error:
  Message: Error: Polling for changes failed: NetworkError when attempting to fetch resource..
  Stack:
    remoteSettingsFunction/remoteSettings.pollChanges@resource://services-settings/remote-settings.js:721:13

1543681820298	Marionette	INFO	Listening on port 43763
1543681822977	Marionette	WARN	TLS certificate errors will be ignored for this session
console.error: BroadcastService: 
JavaScript warning: https://cdn.freshmarketer.com/179700/477681.js, line 3: unreachable code after return statement
  receivedBroadcastMessage: handler for
  remote-settings/monitor_changes
  threw error:
  Message: Error: Polling for changes failed: NetworkError when attempting to fetch resource..
  Stack:
    remoteSettingsFunction/remoteSettings.pollChanges@resource://services-settings/remote-settings.js:721:13

JavaScript warning: https://cdn.tokopedia.net/built/5491c7b07e8e26e789c3566ee4a966dc.js, line 59: Error: WebGL warning: <SetDimensions>: Can't use WebGL in headless mode (https://bugzil.la/1375585).
JavaScript warning: https://cdn.tokopedia.net/built/5491c7b07e8e26e789c3566ee4a966dc.js, line 59: Error: WebGL warning: <SetDimensions>: Failed to create WebGL context: WebGL creation failed: 
* Can't use WebGL in headless mode (https://bugzil.la/1375585).
JavaScript warning: https://cdn.tokopedia.net/built/5491c7b07e8e26e789c3566ee4a966dc.js, line 59: Error: WebGL warning: <SetDimensions>: Can't use WebGL in headless mode (https://bugzil.la/1375585).
JavaScript warning: https://cdn.tokopedia.net/built/5491c7b07e8e26e789c3566ee4a966dc.js, line 59: Error: WebGL warning: <SetDimensions>: Failed to create WebGL context: WebGL creation failed: 
* Can't use WebGL in headless mode (https://bugzil.la/1375585).
JavaScript warning: https://cdn.tokopedia.net/built/assets-201811-8c8baccfa9be77773ebd7408c3753ffa.js, line 888: Error: WebGL warning: <SetDimensions>: Can't use WebGL in headless mode (https://bugzil.la/1375585).
JavaScript warning: https://cdn.tokopedia.net/built/assets-201811-8c8baccfa9be77773ebd7408c3753ffa.js, line 888: Error: WebGL warning: <SetDimensions>: Failed to create WebGL context: WebGL creation failed: 
* Can't use WebGL in headless mode (https://bugzil.la/1375585).
JavaScript warning: https://cdn.tokopedia.net/built/assets-201811-8c8baccfa9be77773ebd7408c3753ffa.js, line 888: Error: WebGL warning: <SetDimensions>: Can't use WebGL in headless mode (https://bugzil.la/1375585).
JavaScript warning: https://cdn.tokopedia.net/built/assets-201811-8c8baccfa9be77773ebd7408c3753ffa.js, line 888: Error: WebGL warning: <SetDimensions>: Failed to create WebGL context: WebGL creation failed: 
* Can't use WebGL in headless mode (https://bugzil.la/1375585).
1543682545071	mozrunner::runner	INFO	Running command: "/usr/bin/firefox" "-marionette" "-headless" "-foreground" "-no-remote" "-profile" "/tmp/rust_mozprofile.jyjOkLilItKB"
*** You are running in headless mode.
1543682562537	Marionette	INFO	Listening on port 38431
1543682562582	Marionette	WARN	TLS certificate errors will be ignored for this session
1543682566528	mozrunner::runner	INFO	Running command: "/usr/bin/firefox" "-marionette" "-headless" "-foreground" "-no-remote" "-profile" "/tmp/rust_mozprofile.wRUD5wnhCdT8"
*** You are running in headless mode.
1543682570644	Marionette	INFO	Listening on port 34787
1543682570745	Marionette	WARN	TLS certificate errors will be ignored for this session
JavaScript warning: https://cdn.freshmarketer.com/179700/477681.js, line 3: unreachable code after return statement
JavaScript warning: https://cdn.tokopedia.net/built/assets-201811-8c8baccfa9be77773ebd7408c3753ffa.js, line 888: Error: WebGL warning: <SetDimensions>: Can't use WebGL in headless mode (https://bugzil.la/1375585).
JavaScript warning: https://cdn.tokopedia.net/built/assets-201811-8c8baccfa9be77773ebd7408c3753ffa.js, line 888: Error: WebGL warning: <SetDimensions>: Failed to create WebGL context: WebGL creation failed: 
* Can't use WebGL in headless mode (https://bugzil.la/1375585).
JavaScript warning: https://cdn.tokopedia.net/built/assets-201811-8c8baccfa9be77773ebd7408c3753ffa.js, line 888: Error: WebGL warning: <SetDimensions>: Can't use WebGL in headless mode (https://bugzil.la/1375585).
JavaScript warning: https://cdn.tokopedia.net/built/assets-201811-8c8baccfa9be77773ebd7408c3753ffa.js, line 888: Error: WebGL warning: <SetDimensions>: Failed to create WebGL context: WebGL creation failed: 
* Can't use WebGL in headless mode (https://bugzil.la/1375585).
JavaScript warning: https://ecs7.tokopedia.net/scripts/global.fingerprintjs2.1.4.2.min.js, line 1: Error: WebGL warning: <SetDimensions>: Can't use WebGL in headless mode (https://bugzil.la/1375585).
JavaScript warning: https://ecs7.tokopedia.net/scripts/global.fingerprintjs2.1.4.2.min.js, line 1: Error: WebGL warning: <SetDimensions>: Failed to create WebGL context: WebGL creation failed: 
* Can't use WebGL in headless mode (https://bugzil.la/1375585).
JavaScript warning: https://ecs7.tokopedia.net/scripts/global.fingerprintjs2.1.4.2.min.js, line 1: Error: WebGL warning: <SetDimensions>: Can't use WebGL in headless mode (https://bugzil.la/1375585).
JavaScript warning: https://ecs7.tokopedia.net/scripts/global.fingerprintjs2.1.4.2.min.js, line 1: Error: WebGL warning: <SetDimensions>: Failed to create WebGL context: WebGL creation failed: 
* Can't use WebGL in headless mode (https://bugzil.la/1375585).
